[gd_scene load_steps=2 format=2]

[ext_resource path="res://menu/menu.gdns" type="Script" id=1]

[node name="Menu" type="Control"]
anchor_right = 1.0
anchor_bottom = 1.0
size_flags_horizontal = 3
size_flags_vertical = 3
script = ExtResource( 1 )
__meta__ = {
"_edit_use_anchors_": false
}

[node name="HBoxContainer" type="HBoxContainer" parent="."]
anchor_right = 1.0
anchor_bottom = 1.0
size_flags_horizontal = 3
size_flags_vertical = 3
__meta__ = {
"_edit_use_anchors_": false
}

[node name="NavigationTree" type="Tree" parent="HBoxContainer"]
margin_right = 198.0
margin_bottom = 600.0
size_flags_horizontal = 3
size_flags_vertical = 3
size_flags_stretch_ratio = 0.2
__meta__ = {
"_edit_use_anchors_": false
}

[node name="Panel" type="Panel" parent="HBoxContainer"]
margin_left = 202.0
margin_right = 1195.0
margin_bottom = 600.0
size_flags_horizontal = 3
size_flags_vertical = 3

[node name="SettingsPanel" type="Control" parent="HBoxContainer"]
margin_left = 1199.0
margin_right = 1199.0
margin_bottom = 600.0
__meta__ = {
"_edit_use_anchors_": false
}
